000 XXX00000 19.2 10101     0 235  8 10.1 0 0 0
001 XXX00100 20.2 10101   100 235  8 10.3 0 0 0
002 XXX00500 21.2 10101   500 235  8 10.5 0 0 0
003 XXX00900 22.2 10101   900 235  8 10.7 0 0 0
004 XXX01200 23.2 10101  1200 235  8 10.9 0 0 0
005 XXX01500 24.2 10101  1500 235  8 10.7 0 0 0
006 XXX01800 25.2 10101  1800 235  8 10.5 0 0 0
007 XXX02100 26.2 10101  2100 235  8 10.3 0 0 0
008 XXX02400 27.2 10101  2400 235  8 10.1 1 2 0
009 XXX02700 28.2 10101  2700 235  8 10.3 1 2 0

